^C:\USERS\HOME\SOURCE\REPOS\PROJECT15\ACCUMULATOR.CPP|C:\USERS\HOME\SOURCE\REPOS\PROJECT15\MAIN.CPP|C:\USERS\HOME\SOURCE\REPOS\PROJECT15\PHONE.CPP
C:\USERS\HOME\SOURCE\REPOS\PROJECT15\DEBUG\VC142.PDB
C:\USERS\HOME\SOURCE\REPOS\PROJECT15\DEBUG\VC142.IDB
C:\USERS\HOME\SOURCE\REPOS\PROJECT15\DEBUG\PHONE.OBJ
C:\USERS\HOME\SOURCE\REPOS\PROJECT15\DEBUG\MAIN.OBJ
C:\USERS\HOME\SOURCE\REPOS\PROJECT15\DEBUG\ACCUMULATOR.OBJ
^C:\USERS\HOME\SOURCE\REPOS\PROJECT15\ACCUMULATOR.CPP
C:\USERS\HOME\SOURCE\REPOS\PROJECT15\DEBUG\VC142.PDB
^C:\USERS\HOME\SOURCE\REPOS\PROJECT15\CAMERA.CPP|C:\USERS\HOME\SOURCE\REPOS\PROJECT15\MAIN.CPP
C:\USERS\HOME\SOURCE\REPOS\PROJECT15\DEBUG\VC142.PDB
C:\USERS\HOME\SOURCE\REPOS\PROJECT15\DEBUG\VC142.IDB
C:\USERS\HOME\SOURCE\REPOS\PROJECT15\DEBUG\MAIN.OBJ
C:\USERS\HOME\SOURCE\REPOS\PROJECT15\DEBUG\CAMERA.OBJ
^C:\USERS\HOME\SOURCE\REPOS\PROJECT15\CAMERA.CPP
C:\USERS\HOME\SOURCE\REPOS\PROJECT15\DEBUG\VC142.PDB
^C:\USERS\HOME\SOURCE\REPOS\PROJECT15\DISPLAY.CPP|C:\USERS\HOME\SOURCE\REPOS\PROJECT15\MAIN.CPP
C:\USERS\HOME\SOURCE\REPOS\PROJECT15\DEBUG\VC142.PDB
C:\USERS\HOME\SOURCE\REPOS\PROJECT15\DEBUG\VC142.IDB
C:\USERS\HOME\SOURCE\REPOS\PROJECT15\DEBUG\MAIN.OBJ
C:\USERS\HOME\SOURCE\REPOS\PROJECT15\DEBUG\DISPLAY.OBJ
^C:\USERS\HOME\SOURCE\REPOS\PROJECT15\DISPLAY.CPP
C:\USERS\HOME\SOURCE\REPOS\PROJECT15\DEBUG\VC142.PDB
^C:\USERS\HOME\SOURCE\REPOS\PROJECT15\MAIN.CPP|C:\USERS\HOME\SOURCE\REPOS\PROJECT15\PHONE.CPP
C:\USERS\HOME\SOURCE\REPOS\PROJECT15\DEBUG\VC142.PDB
C:\USERS\HOME\SOURCE\REPOS\PROJECT15\DEBUG\VC142.IDB
C:\USERS\HOME\SOURCE\REPOS\PROJECT15\DEBUG\PHONE.OBJ
C:\USERS\HOME\SOURCE\REPOS\PROJECT15\DEBUG\MAIN.OBJ
^C:\USERS\HOME\SOURCE\REPOS\PROJECT15\MAIN.CPP
C:\USERS\HOME\SOURCE\REPOS\PROJECT15\DEBUG\VC142.PDB
^C:\USERS\HOME\SOURCE\REPOS\PROJECT15\PHONE.CPP
C:\USERS\HOME\SOURCE\REPOS\PROJECT15\DEBUG\VC142.PDB
